<?xml version="1.0" encoding="utf-8"?>
<!-- Generator: Adobe Illustrator 22.1.0, SVG Export Plug-In . SVG Version: 6.00 Build 0)  -->
<svg version="1.1" id="Layer_1" xmlns="http://www.w3.org/2000/svg" xmlns:xlink="http://www.w3.org/1999/xlink" x="0px" y="0px"
	 viewBox="0 0 527.5 524.8" style="enable-background:new 0 0 527.5 524.8;" xml:space="preserve">
<style type="text/css">
	.st0{display:none;}
	.st1{display:inline;fill:none;stroke:#FFFFFF;stroke-width:18;stroke-miterlimit:10;}
	.st2{display:inline;fill:#FFFFFF;}
	.st3{fill:none;stroke:#000000;stroke-width:18;stroke-miterlimit:10;}
</style>
<g class="st0">
	<path class="st1" d="M1398,224.6v261.3c0,16.5-13.4,30-30,30H975c-16.5,0-30-13.4-30-30V62.8c0-16.5,13.4-30,30-30h282.3"/>
	<polygon class="st2" points="1304.5,66.3 1072,298.8 1055.5,410.3 1157.5,393.3 1394.5,156.3 	"/>
	
		<rect x="1329.9" y="36" transform="matrix(0.7071 0.7071 -0.7071 0.7071 457.232 -965.8459)" class="st2" width="129.1" height="66"/>
</g>
<g>
	<path class="st3" d="M462,224.6v261.3c0,16.5-13.4,30-30,30H39c-16.5,0-30-13.4-30-30V62.8c0-16.5,13.4-30,30-30h282.3"/>
	<polygon points="368.5,66.3 136,298.8 119.5,410.3 221.5,393.3 458.5,156.3 	"/>
	<rect x="393.9" y="36" transform="matrix(0.7071 0.7071 -0.7071 0.7071 183.0839 -303.994)" width="129.1" height="66"/>
</g>
</svg>
